%!PS-Adobe-3.0 EPSF-3.0
%%Creator: MATLAB, The MathWorks, Inc. Version 8.2.0.701 (R2013b). Operating System: Microsoft Windows 7.
%%Title: C:\Users\Felix\Repos\miccai2014depthstreampaper\images\trainingThreeTestingRemaining.eps
%%CreationDate: 02/16/2014  16:15:14
%%DocumentNeededFonts: Helvetica
%%DocumentProcessColors: Cyan Magenta Yellow Black
%%LanguageLevel: 2
%%Pages: 1
%%BoundingBox:   104   199   490   642
%%EndComments

%%BeginProlog
% MathWorks dictionary
/MathWorks 160 dict begin
% definition operators
/bdef {bind def} bind def
/ldef {load def} bind def
/xdef {exch def} bdef
/xstore {exch store} bdef
% operator abbreviations
/c  /clip ldef
/cc /concat ldef
/cp /closepath ldef
/gr /grestore ldef
/gs /gsave ldef
/mt /moveto ldef
/np /newpath ldef
/cm /currentmatrix ldef
/sm /setmatrix ldef
/rm /rmoveto ldef
/rl /rlineto ldef
/s {show newpath} bdef
/sc {setcmykcolor} bdef
/sr /setrgbcolor ldef
/sg /setgray ldef
/w /setlinewidth ldef
/j /setlinejoin ldef
/cap /setlinecap ldef
/rc {rectclip} bdef
/rf {rectfill} bdef
% page state control
/pgsv () def
/bpage {/pgsv save def} bdef
/epage {pgsv restore} bdef
/bplot /gsave ldef
/eplot {stroke grestore} bdef
% orientation switch
/portraitMode 0 def /landscapeMode 1 def /rotateMode 2 def
% coordinate system mappings
/dpi2point 0 def
% font control
/FontSize 0 def
/FMS {/FontSize xstore findfont [FontSize 0 0 FontSize neg 0 0]
  makefont setfont} bdef
/ISOLatin1Encoding where {pop /WindowsLatin1Encoding 256 array bdef
ISOLatin1Encoding WindowsLatin1Encoding copy pop
/.notdef/.notdef/quotesinglbase/florin/quotedblbase/ellipsis/dagger
/daggerdbl/circumflex/perthousand/Scaron/guilsinglleft/OE/.notdef/.notdef
/.notdef/.notdef/quoteleft/quoteright/quotedblleft/quotedblright/bullet
/endash/emdash/tilde/trademark/scaron/guilsinglright/oe/.notdef/.notdef
/Ydieresis WindowsLatin1Encoding 128 32 getinterval astore pop}
{/WindowsLatin1Encoding StandardEncoding bdef} ifelse
/reencode {exch dup where {pop load} {pop StandardEncoding} ifelse
  exch dup 3 1 roll findfont dup length dict begin
  { 1 index /FID ne {def}{pop pop} ifelse } forall
  /Encoding exch def currentdict end definefont pop} bdef
/isroman {findfont /CharStrings get /Agrave known} bdef
/FMSR {3 1 roll 1 index dup isroman {reencode} {pop pop} ifelse
  exch FMS} bdef
/csm {1 dpi2point div -1 dpi2point div scale neg translate
 dup landscapeMode eq {pop -90 rotate}
  {rotateMode eq {90 rotate} if} ifelse} bdef
% line types: solid, dotted, dashed, dotdash
/SO { [] 0 setdash } bdef
/DO { [.5 dpi2point mul 4 dpi2point mul] 0 setdash } bdef
/DA { [6 dpi2point mul] 0 setdash } bdef
/DD { [.5 dpi2point mul 4 dpi2point mul 6 dpi2point mul 4
  dpi2point mul] 0 setdash } bdef
% macros for lines and objects
/L {lineto stroke} bdef
/MP {3 1 roll moveto 1 sub {rlineto} repeat} bdef
/AP {{rlineto} repeat} bdef
/PDlw -1 def
/W {/PDlw currentlinewidth def setlinewidth} def
/PP {closepath eofill} bdef
/DP {closepath stroke} bdef
/MR {4 -2 roll moveto dup  0 exch rlineto exch 0 rlineto
  neg 0 exch rlineto closepath} bdef
/FR {MR stroke} bdef
/PR {MR fill} bdef
/L1i {{currentfile picstr readhexstring pop} image} bdef
/tMatrix matrix def
/MakeOval {newpath tMatrix currentmatrix pop translate scale
0 0 1 0 360 arc tMatrix setmatrix} bdef
/FO {MakeOval stroke} bdef
/PO {MakeOval fill} bdef
/PD {currentlinewidth 2 div 0 360 arc fill
   PDlw -1 eq not {PDlw w /PDlw -1 def} if} def
/FA {newpath tMatrix currentmatrix pop translate scale
  0 0 1 5 -2 roll arc tMatrix setmatrix stroke} bdef
/PA {newpath tMatrix currentmatrix pop	translate 0 0 moveto scale
  0 0 1 5 -2 roll arc closepath tMatrix setmatrix fill} bdef
/FAn {newpath tMatrix currentmatrix pop translate scale
  0 0 1 5 -2 roll arcn tMatrix setmatrix stroke} bdef
/PAn {newpath tMatrix currentmatrix pop translate 0 0 moveto scale
  0 0 1 5 -2 roll arcn closepath tMatrix setmatrix fill} bdef
/vradius 0 def /hradius 0 def /lry 0 def
/lrx 0 def /uly 0 def /ulx 0 def /rad 0 def
/MRR {/vradius xdef /hradius xdef /lry xdef /lrx xdef /uly xdef
  /ulx xdef newpath tMatrix currentmatrix pop ulx hradius add uly
  vradius add translate hradius vradius scale 0 0 1 180 270 arc 
  tMatrix setmatrix lrx hradius sub uly vradius add translate
  hradius vradius scale 0 0 1 270 360 arc tMatrix setmatrix
  lrx hradius sub lry vradius sub translate hradius vradius scale
  0 0 1 0 90 arc tMatrix setmatrix ulx hradius add lry vradius sub
  translate hradius vradius scale 0 0 1 90 180 arc tMatrix setmatrix
  closepath} bdef
/FRR {MRR stroke } bdef
/PRR {MRR fill } bdef
/MlrRR {/lry xdef /lrx xdef /uly xdef /ulx xdef /rad lry uly sub 2 div def
  newpath tMatrix currentmatrix pop ulx rad add uly rad add translate
  rad rad scale 0 0 1 90 270 arc tMatrix setmatrix lrx rad sub lry rad
  sub translate rad rad scale 0 0 1 270 90 arc tMatrix setmatrix
  closepath} bdef
/FlrRR {MlrRR stroke } bdef
/PlrRR {MlrRR fill } bdef
/MtbRR {/lry xdef /lrx xdef /uly xdef /ulx xdef /rad lrx ulx sub 2 div def
  newpath tMatrix currentmatrix pop ulx rad add uly rad add translate
  rad rad scale 0 0 1 180 360 arc tMatrix setmatrix lrx rad sub lry rad
  sub translate rad rad scale 0 0 1 0 180 arc tMatrix setmatrix
  closepath} bdef
/FtbRR {MtbRR stroke } bdef
/PtbRR {MtbRR fill } bdef
/stri 6 array def /dtri 6 array def
/smat 6 array def /dmat 6 array def
/tmat1 6 array def /tmat2 6 array def /dif 3 array def
/asub {/ind2 exch def /ind1 exch def dup dup
  ind1 get exch ind2 get sub exch } bdef
/tri_to_matrix {
  2 0 asub 3 1 asub 4 0 asub 5 1 asub
  dup 0 get exch 1 get 7 -1 roll astore } bdef
/compute_transform {
  dmat dtri tri_to_matrix tmat1 invertmatrix 
  smat stri tri_to_matrix tmat2 concatmatrix } bdef
/ds {stri astore pop} bdef
/dt {dtri astore pop} bdef
/db {2 copy /cols xdef /rows xdef mul dup 3 mul string
  currentfile 
  3 index 0 eq {/ASCIIHexDecode filter}
  {/ASCII85Decode filter 3 index 2 eq {/RunLengthDecode filter} if }
  ifelse exch readstring pop
  dup 0 3 index getinterval /rbmap xdef
  dup 2 index dup getinterval /gbmap xdef
  1 index dup 2 mul exch getinterval /bbmap xdef pop pop}bdef
/it {gs np dtri aload pop moveto lineto lineto cp c
  cols rows 8 compute_transform 
  rbmap gbmap bbmap true 3 colorimage gr}bdef
/il {newpath moveto lineto stroke}bdef
currentdict end def
%%EndProlog

%%BeginSetup
MathWorks begin

0 cap

end
%%EndSetup

%%Page: 1 1
%%BeginPageSetup
%%PageBoundingBox:   104   199   490   642
MathWorks begin
bpage
%%EndPageSetup

%%BeginObject: obj1
bplot

/dpi2point 12 def
portraitMode 1248 7704 csm

    0     0  4639  5312 rc
85 dict begin %Colortable dictionary
/c0 { 0.000000 0.000000 0.000000 sr} bdef
/c1 { 1.000000 1.000000 1.000000 sr} bdef
/c2 { 0.900000 0.000000 0.000000 sr} bdef
/c3 { 0.000000 0.820000 0.000000 sr} bdef
/c4 { 0.000000 0.000000 0.800000 sr} bdef
/c5 { 0.910000 0.820000 0.320000 sr} bdef
/c6 { 1.000000 0.260000 0.820000 sr} bdef
/c7 { 0.000000 0.820000 0.820000 sr} bdef
c0
1 j
1 sg
   0    0 4640 5313 rf
6 w
0 -3595 3596 0 0 3595 983 708 4 MP
PP
-3596 0 0 -3595 3596 0 0 3595 983 708 5 MP stroke
gs 983 708 3597 3596 rc
/mwscm { [/Indexed /DeviceRGB 63
  <
    00008f 00009f 0000af 0000bf 0000cf 0000df 0000ef 0000ff 000fff 001fff 
    002fff 003fff 004fff 005fff 006fff 007fff 008fff 009fff 00afff 00bfff 
    00cfff 00dfff 00efff 00ffff 0fffef 1fffdf 2fffcf 3fffbf 4fffaf 5fff9f 
    6fff8f 7fff7f 8fff6f 9fff5f afff4f bfff3f cfff2f dfff1f efff0f ffff00 
    ffef00 ffdf00 ffcf00 ffbf00 ffaf00 ff9f00 ff8f00 ff7f00 ff6f00 ff5f00 
    ff4f00 ff3f00 ff2f00 ff1f00 ff0f00 ff0000 ef0000 df0000 cf0000 bf0000 
    af0000 9f0000 8f0000 7f0000 
  >
] setcolorspace } bdef mwscm
gs np 984 708 mt 0 3596 rl 3595 0 rl 0 -3596 rl cp c np
[3595 0 0 3596 984 708] cc
<< % Image dictionary
  /ImageType 1
  /Width 8 /Height 8
  /BitsPerComponent 8
  /Decode [0 255]
  /ImageMatrix [8.000000 0 0 8.000000 0 0]
  /DataSource currentfile
  /ASCII85Decode filter
  /RunLengthDecode filter
>>
image
!&XZXr;[01/-#eU!!E9-!%e'K":PD5!'L)X!X(Icq>^L[rVup$r;Zg[rVup(r;ZgWJ,
~>
gr
gr

0 sg
%%IncludeResource: font Helvetica
/Helvetica /WindowsLatin1Encoding 144 FMSR

2272 5014 mt 
(predicted labels) s
 296 2839 mt  -90 rotate
(true labels) s
90 rotate
%%IncludeResource: font Helvetica
/Helvetica /WindowsLatin1Encoding 120 FMSR

 894 4786 mt  -45 rotate
(HandLeft) s
45 rotate
1287 4843 mt  -45 rotate
(HandRight) s
45 rotate
1793 4786 mt  -45 rotate
(HeadLeft) s
45 rotate
2185 4843 mt  -45 rotate
(HeadRight) s
45 rotate
2753 4726 mt  -45 rotate
(LegLeft) s
45 rotate
3145 4782 mt  -45 rotate
(LegRight) s
45 rotate
3642 4735 mt  -45 rotate
(So4Left) s
45 rotate
4035 4791 mt  -45 rotate
(So4Right) s
45 rotate
1005  975 mt 
(81.25%) s
1038 1424 mt 
(12.5%) s
1038 1873 mt 
(12.5%) s
1038 2323 mt 
(6.25%) s
1488  975 mt 
(6.25%) s
1455 1424 mt 
(68.75%) s
1488 3671 mt 
(6.25%) s
1937  975 mt 
(6.25%) s
1904 1873 mt 
(68.75%) s
1937 4120 mt 
(12.5%) s
2386  975 mt 
(6.25%) s
2386 1424 mt 
(6.25%) s
2353 2323 mt 
(93.75%) s
2386 2772 mt 
(6.25%) s
2836 1424 mt 
(6.25%) s
2836 2772 mt 
(87.5%) s
3285 2772 mt 
(6.25%) s
3302 3222 mt 
(100%) s
3734 1424 mt 
(6.25%) s
3701 3671 mt 
(93.75%) s
4151 1873 mt 
(18.75%) s
4184 4120 mt 
(87.5%) s
4 w
DO
SO
6 w
 983 4303 mt 4579 4303 L
 983  708 mt 4579  708 L
4579  708 mt 4579 4303 L
 983  708 mt  983 4303 L
 983 4303 mt 4579 4303 L
 983  708 mt  983 4303 L
1208 4303 mt 1208 4267 L
1208  708 mt 1208  744 L
1658 4303 mt 1658 4267 L
1658  708 mt 1658  744 L
2107 4303 mt 2107 4267 L
2107  708 mt 2107  744 L
2556 4303 mt 2556 4267 L
2556  708 mt 2556  744 L
3006 4303 mt 3006 4267 L
3006  708 mt 3006  744 L
3455 4303 mt 3455 4267 L
3455  708 mt 3455  744 L
3904 4303 mt 3904 4267 L
3904  708 mt 3904  744 L
4354 4303 mt 4354 4267 L
4354  708 mt 4354  744 L
 983  933 mt 1019  933 L
4579  933 mt 4543  933 L
 463  977 mt 
(HandLeft) s
 983 1382 mt 1019 1382 L
4579 1382 mt 4543 1382 L
 383 1426 mt 
(HandRight) s
 983 1831 mt 1019 1831 L
4579 1831 mt 4543 1831 L
 463 1875 mt 
(HeadLeft) s
 983 2281 mt 1019 2281 L
4579 2281 mt 4543 2281 L
 383 2325 mt 
(HeadRight) s
 983 2730 mt 1019 2730 L
4579 2730 mt 4543 2730 L
 549 2774 mt 
(LegLeft) s
 983 3180 mt 1019 3180 L
4579 3180 mt 4543 3180 L
 469 3224 mt 
(LegRight) s
 983 3629 mt 1019 3629 L
4579 3629 mt 4543 3629 L
 536 3673 mt 
(So4Left) s
 983 4078 mt 1019 4078 L
4579 4078 mt 4543 4078 L
 456 4122 mt 
(So4Right) s
 983 4303 mt 4579 4303 L
 983  708 mt 4579  708 L
4579  708 mt 4579 4303 L
 983  708 mt  983 4303 L

end %%Color Dict

eplot
%%EndObject

epage
end

showpage

%%Trailer
%%EOF
